^C:\USERS\200022877\SOURCE\REPOS\LABEXERCISE2\LABEXERCISE2\MAINCPP.CPP
/c /ZI /JMC /nologo /W3 /WX- /diagnostics:classic /sdl /Od /Oy- /D _MBCS /Gm- /EHsc /RTC1 /MDd /GS /fp:precise /permissive- /Zc:wchar_t /Zc:forScope /Zc:inline /Fo"DEBUG\\" /Fd"DEBUG\VC141.PDB" /Gd /TP /analyze- /FC C:\USERS\200022877\SOURCE\REPOS\LABEXERCISE2\LABEXERCISE2\MAINCPP.CPP
^\\APPSDATA2.FVTC.EDU\USERDATA$\500154898\DOCUMENTS\CPP\REPOS\PLAYING-CARDS-2.0\LABEXERCISE2\MAINCPP.CPP
/c /ZI /JMC /nologo /W3 /WX- /diagnostics:classic /sdl /Od /Oy- /D _MBCS /Gm- /EHsc /RTC1 /MDd /GS /fp:precise /permissive- /Zc:wchar_t /Zc:forScope /Zc:inline /Fo"DEBUG\\" /Fd"DEBUG\VC141.PDB" /Gd /TP /analyze- /FC \\APPSDATA2.FVTC.EDU\USERDATA$\500154898\DOCUMENTS\CPP\REPOS\PLAYING-CARDS-2.0\LABEXERCISE2\MAINCPP.CPP
