^C:\USERS\200022877\SOURCE\REPOS\LABEXERCISE2\LABEXERCISE2\DEBUG\MAINCPP.OBJ
/OUT:"C:\USERS\200022877\SOURCE\REPOS\LABEXERCISE2\DEBUG\LABEXERCISE2.EXE" /INCREMENTAL /NOLOGO KERNEL32.LIB USER32.LIB GDI32.LIB WINSPOOL.LIB COMDLG32.LIB ADVAPI32.LIB SHELL32.LIB OLE32.LIB OLEAUT32.LIB UUID.LIB ODBC32.LIB ODBCCP32.LIB /MANIFEST /MANIFESTUAC:"level='asInvoker' uiAccess='false'" /manifest:embed /DEBUG:FASTLINK /PDB:"C:\USERS\200022877\SOURCE\REPOS\LABEXERCISE2\DEBUG\LABEXERCISE2.PDB" /TLBID:1 /DYNAMICBASE /NXCOMPAT /IMPLIB:"C:\USERS\200022877\SOURCE\REPOS\LABEXERCISE2\DEBUG\LABEXERCISE2.LIB" /MACHINE:X86 DEBUG\MAINCPP.OBJ
^\\APPSDATA2.FVTC.EDU\USERDATA$\500154898\DOCUMENTS\CPP\REPOS\PLAYING-CARDS-2.0\LABEXERCISE2\DEBUG\MAINCPP.OBJ
/OUT:"\\APPSDATA2.FVTC.EDU\USERDATA$\500154898\DOCUMENTS\CPP\REPOS\PLAYING-CARDS-2.0\DEBUG\LABEXERCISE2.EXE" /INCREMENTAL /NOLOGO KERNEL32.LIB USER32.LIB GDI32.LIB WINSPOOL.LIB COMDLG32.LIB ADVAPI32.LIB SHELL32.LIB OLE32.LIB OLEAUT32.LIB UUID.LIB ODBC32.LIB ODBCCP32.LIB /MANIFEST /MANIFESTUAC:"level='asInvoker' uiAccess='false'" /manifest:embed /DEBUG:FASTLINK /PDB:"\\APPSDATA2.FVTC.EDU\USERDATA$\500154898\DOCUMENTS\CPP\REPOS\PLAYING-CARDS-2.0\DEBUG\LABEXERCISE2.PDB" /TLBID:1 /DYNAMICBASE /NXCOMPAT /IMPLIB:"\\APPSDATA2.FVTC.EDU\USERDATA$\500154898\DOCUMENTS\CPP\REPOS\PLAYING-CARDS-2.0\DEBUG\LABEXERCISE2.LIB" /MACHINE:X86 DEBUG\MAINCPP.OBJ
